Serenity report generated 27-02-2022 21:59
1 test scenarios (1 tests in all, including 1 rows of test data)

Passed:             1
Pending             0
Failed:             0
Failed with errors: 0
Compromised:        0
Pending:            0
Ignored:            0
Skipped:            0